﻿Key,File,Type,UsedInMainMenu,NoTranslate,english,Context / Alternate Text,german,latam,french,italian,japanese,koreana,polish,brazilian,russian,turkish,schinese,tchinese,spanish
daycount_1,UI,Value display,x,,"Monday, January 1st, ",,,,,,,,,,,,,,
daycount_2,UI,Value display,x,,"Tuesday, January 2nd, ",,,,,,,,,,,,,,
daycount_3,UI,Value display,x,,"Wednesday, January 3rd, ",,,,,,,,,,,,,,
daycount_4,UI,Value display,x,,"Thursday, January 4th, ",,,,,,,,,,,,,,
daycount_5,UI,Value display,x,,"Friday, January 5th, ",,,,,,,,,,,,,,
daycount_6,UI,Value display,x,,"Saturday, January 6th, ",,,,,,,,,,,,,,
daycount_7,UI,Value display,x,,"Sunday, January 7th, ",,,,,,,,,,,,,,
daycount_8,UI,Value display,x,,"Monday, January 8th, ",,,,,,,,,,,,,,
daycount_9,UI,Value display,x,,"Tuesday, January 9th, ",,,,,,,,,,,,,,
daycount_10,UI,Value display,x,,"Wednesday, January 10th, ",,,,,,,,,,,,,,
daycount_11,UI,Value display,x,,"Thursday, January 11th, ",,,,,,,,,,,,,,
daycount_12,UI,Value display,x,,"Friday, January 12th, ",,,,,,,,,,,,,,
daycount_13,UI,Value display,x,,"Saturday, January 13th, ",,,,,,,,,,,,,,
daycount_14,UI,Value display,x,,"Sunday, January 14th, ",,,,,,,,,,,,,,
daycount_15,UI,Value display,x,,"Monday, January 15th, ",,,,,,,,,,,,,,
daycount_16,UI,Value display,x,,"Tuesday, January 16th, ",,,,,,,,,,,,,,
daycount_17,UI,Value display,x,,"Wednesday, January 17th, ",,,,,,,,,,,,,,
daycount_18,UI,Value display,x,,"Thursday, January 18th, ",,,,,,,,,,,,,,
daycount_19,UI,Value display,x,,"Friday, January 19th, ",,,,,,,,,,,,,,
daycount_20,UI,Value display,x,,"Saturday, January 20th, ",,,,,,,,,,,,,,
daycount_21,UI,Value display,x,,"Sunday, January 21st, ",,,,,,,,,,,,,,
daycount_22,UI,Value display,x,,"Monday, January 22nd, ",,,,,,,,,,,,,,
daycount_23,UI,Value display,x,,"Tuesday, January 23rd, ",,,,,,,,,,,,,,
daycount_24,UI,Value display,x,,"Wednesday, January 24th, ",,,,,,,,,,,,,,
daycount_25,UI,Value display,x,,"Thursday, January 25th, ",,,,,,,,,,,,,,
daycount_26,UI,Value display,x,,"Friday, January 26th, ",,,,,,,,,,,,,,
daycount_27,UI,Value display,x,,"Saturday, January 27th, ",,,,,,,,,,,,,,
daycount_28,UI,Value display,x,,"Sunday, January 28th, ",,,,,,,,,,,,,,
daycount_29,UI,Value display,x,,"Monday, January 29th, ",,,,,,,,,,,,,,
daycount_30,UI,Value display,x,,"Tuesday, January 30th, ",,,,,,,,,,,,,,
daycount_31,UI,Value display,x,,"Wednesday, January 31st, ",,,,,,,,,,,,,,
daycount_32,UI,Value display,x,,"Thursday, February 1st, ",,,,,,,,,,,,,,
daycount_33,UI,Value display,x,,"Friday, February 2nd, ",,,,,,,,,,,,,,
daycount_34,UI,Value display,x,,"Saturday, February 3rd, ",,,,,,,,,,,,,,
daycount_35,UI,Value display,x,,"Sunday, February 4th, ",,,,,,,,,,,,,,
daycount_36,UI,Value display,x,,"Monday, February 5th, ",,,,,,,,,,,,,,
daycount_37,UI,Value display,x,,"Tuesday, February 6th, ",,,,,,,,,,,,,,
daycount_38,UI,Value display,x,,"Wednesday, February 7th, ",,,,,,,,,,,,,,
daycount_39,UI,Value display,x,,"Thursday, February 8th, ",,,,,,,,,,,,,,
daycount_40,UI,Value display,x,,"Friday, February 9th, ",,,,,,,,,,,,,,
daycount_41,UI,Value display,x,,"Saturday, February 10th, ",,,,,,,,,,,,,,
daycount_42,UI,Value display,x,,"Sunday, February 11th, ",,,,,,,,,,,,,,
daycount_43,UI,Value display,x,,"Monday, February 12th, ",,,,,,,,,,,,,,
daycount_44,UI,Value display,x,,"Tuesday, February 13th, ",,,,,,,,,,,,,,
daycount_45,UI,Value display,x,,"Wednesday, February 14th, ",,,,,,,,,,,,,,
daycount_46,UI,Value display,x,,"Thursday, February 15th, ",,,,,,,,,,,,,,
daycount_47,UI,Value display,x,,"Friday, February 16th, ",,,,,,,,,,,,,,
daycount_48,UI,Value display,x,,"Saturday, February 17th, ",,,,,,,,,,,,,,
daycount_49,UI,Value display,x,,"Sunday, February 18th, ",,,,,,,,,,,,,,
daycount_50,UI,Value display,x,,"Monday, February 19th, ",,,,,,,,,,,,,,
daycount_51,UI,Value display,x,,"Tuesday, February 20th, ",,,,,,,,,,,,,,
daycount_52,UI,Value display,x,,"Wednesday, February 21st, ",,,,,,,,,,,,,,
daycount_53,UI,Value display,x,,"Thursday, February 22nd, ",,,,,,,,,,,,,,
daycount_54,UI,Value display,x,,"Friday, February 23rd, ",,,,,,,,,,,,,,
daycount_55,UI,Value display,x,,"Saturday, February 24th, ",,,,,,,,,,,,,,
daycount_56,UI,Value display,x,,"Sunday, February 25th, ",,,,,,,,,,,,,,
daycount_57,UI,Value display,x,,"Monday, February 26th, ",,,,,,,,,,,,,,
daycount_58,UI,Value display,x,,"Tuesday, February 27th, ",,,,,,,,,,,,,,
daycount_59,UI,Value display,x,,"Wednesday, February 28th, ",,,,,,,,,,,,,,
daycount_60,UI,Value display,x,,"Thursday, March 1st, ",,,,,,,,,,,,,,
daycount_61,UI,Value display,x,,"Friday, March 2nd, ",,,,,,,,,,,,,,
daycount_62,UI,Value display,x,,"Saturday, March 3rd, ",,,,,,,,,,,,,,
daycount_63,UI,Value display,x,,"Sunday, March 4th, ",,,,,,,,,,,,,,
daycount_64,UI,Value display,x,,"Monday, March 5th, ",,,,,,,,,,,,,,
daycount_65,UI,Value display,x,,"Tuesday, March 6th, ",,,,,,,,,,,,,,
daycount_66,UI,Value display,x,,"Wednesday, March 7th, ",,,,,,,,,,,,,,
daycount_67,UI,Value display,x,,"Thursday, March 8th, ",,,,,,,,,,,,,,
daycount_68,UI,Value display,x,,"Friday, March 9th, ",,,,,,,,,,,,,,
daycount_69,UI,Value display,x,,"Saturday, March 10th, ",,,,,,,,,,,,,,
daycount_70,UI,Value display,x,,"Sunday, March 11th, ",,,,,,,,,,,,,,
daycount_71,UI,Value display,x,,"Monday, March 12th, ",,,,,,,,,,,,,,
daycount_72,UI,Value display,x,,"Tuesday, March 13th, ",,,,,,,,,,,,,,
daycount_73,UI,Value display,x,,"Wednesday, March 14th, ",,,,,,,,,,,,,,
daycount_74,UI,Value display,x,,"Thursday, March 15th, ",,,,,,,,,,,,,,
daycount_75,UI,Value display,x,,"Friday, March 16th, ",,,,,,,,,,,,,,
daycount_76,UI,Value display,x,,"Saturday, March 17th, ",,,,,,,,,,,,,,
daycount_77,UI,Value display,x,,"Sunday, March 18th, ",,,,,,,,,,,,,,
daycount_78,UI,Value display,x,,"Monday, March 19th, ",,,,,,,,,,,,,,
daycount_79,UI,Value display,x,,"Tuesday, March 20th, ",,,,,,,,,,,,,,
daycount_80,UI,Value display,x,,"Wednesday, March 21st, ",,,,,,,,,,,,,,
daycount_81,UI,Value display,x,,"Thursday, March 22nd, ",,,,,,,,,,,,,,
daycount_82,UI,Value display,x,,"Friday, March 23rd, ",,,,,,,,,,,,,,
daycount_83,UI,Value display,x,,"Saturday, March 24th, ",,,,,,,,,,,,,,
daycount_84,UI,Value display,x,,"Sunday, March 25th, ",,,,,,,,,,,,,,
daycount_85,UI,Value display,x,,"Monday, March 26th, ",,,,,,,,,,,,,,
daycount_86,UI,Value display,x,,"Tuesday, March 27th, ",,,,,,,,,,,,,,
daycount_87,UI,Value display,x,,"Wednesday, March 28th, ",,,,,,,,,,,,,,
daycount_88,UI,Value display,x,,"Thursday, March 29th, ",,,,,,,,,,,,,,
daycount_89,UI,Value display,x,,"Friday, March 30th, ",,,,,,,,,,,,,,
daycount_90,UI,Value display,x,,"Saturday, March 31st, ",,,,,,,,,,,,,,
daycount_91,UI,Value display,x,,"Sunday, April 1st, ",,,,,,,,,,,,,,
daycount_92,UI,Value display,x,,"Monday, April 2nd, ",,,,,,,,,,,,,,
daycount_93,UI,Value display,x,,"Tuesday, April 3rd, ",,,,,,,,,,,,,,
daycount_94,UI,Value display,x,,"Wednesday, April 4th, ",,,,,,,,,,,,,,
daycount_95,UI,Value display,x,,"Thursday, April 5th, ",,,,,,,,,,,,,,
daycount_96,UI,Value display,x,,"Friday, April 6th, ",,,,,,,,,,,,,,
daycount_97,UI,Value display,x,,"Saturday, April 7th, ",,,,,,,,,,,,,,
daycount_98,UI,Value display,x,,"Sunday, April 8th, ",,,,,,,,,,,,,,
daycount_99,UI,Value display,x,,"Monday, April 9th, ",,,,,,,,,,,,,,
daycount_100,UI,Value display,x,,"Tuesday, April 10th, ",,,,,,,,,,,,,,
daycount_101,UI,Value display,x,,"Wednesday, April 11th, ",,,,,,,,,,,,,,
daycount_102,UI,Value display,x,,"Thursday, April 12th, ",,,,,,,,,,,,,,
daycount_103,UI,Value display,x,,"Friday, April 13th, ",,,,,,,,,,,,,,
daycount_104,UI,Value display,x,,"Saturday, April 14th, ",,,,,,,,,,,,,,
daycount_105,UI,Value display,x,,"Sunday, April 15th, ",,,,,,,,,,,,,,
daycount_106,UI,Value display,x,,"Monday, April 16th, ",,,,,,,,,,,,,,
daycount_107,UI,Value display,x,,"Tuesday, April 17th, ",,,,,,,,,,,,,,
daycount_108,UI,Value display,x,,"Wednesday, April 18th, ",,,,,,,,,,,,,,
daycount_109,UI,Value display,x,,"Thursday, April 19th, ",,,,,,,,,,,,,,
daycount_110,UI,Value display,x,,"Friday, April 20th, ",,,,,,,,,,,,,,
daycount_111,UI,Value display,x,,"Saturday, April 21st, ",,,,,,,,,,,,,,
daycount_112,UI,Value display,x,,"Sunday, April 22nd, ",,,,,,,,,,,,,,
daycount_113,UI,Value display,x,,"Monday, April 23rd, ",,,,,,,,,,,,,,
daycount_114,UI,Value display,x,,"Tuesday, April 24th, ",,,,,,,,,,,,,,
daycount_115,UI,Value display,x,,"Wednesday, April 25th, ",,,,,,,,,,,,,,
daycount_116,UI,Value display,x,,"Thursday, April 26th, ",,,,,,,,,,,,,,
daycount_117,UI,Value display,x,,"Friday, April 27th, ",,,,,,,,,,,,,,
daycount_118,UI,Value display,x,,"Saturday, April 28th, ",,,,,,,,,,,,,,
daycount_119,UI,Value display,x,,"Sunday, April 29th, ",,,,,,,,,,,,,,
daycount_120,UI,Value display,x,,"Monday, April 30th, ",,,,,,,,,,,,,,
daycount_121,UI,Value display,x,,"Tuesday, May 1st, ",,,,,,,,,,,,,,
daycount_122,UI,Value display,x,,"Wednesday, May 2nd, ",,,,,,,,,,,,,,
daycount_123,UI,Value display,x,,"Thursday, May 3rd, ",,,,,,,,,,,,,,
daycount_124,UI,Value display,x,,"Friday, May 4th, ",,,,,,,,,,,,,,
daycount_125,UI,Value display,x,,"Saturday, May 5th, ",,,,,,,,,,,,,,
daycount_126,UI,Value display,x,,"Sunday, May 6th, ",,,,,,,,,,,,,,
daycount_127,UI,Value display,x,,"Monday, May 7th, ",,,,,,,,,,,,,,
daycount_128,UI,Value display,x,,"Tuesday, May 8th, ",,,,,,,,,,,,,,
daycount_129,UI,Value display,x,,"Wednesday, May 9th, ",,,,,,,,,,,,,,
daycount_130,UI,Value display,x,,"Thursday, May 10th, ",,,,,,,,,,,,,,
daycount_131,UI,Value display,x,,"Friday, May 11th, ",,,,,,,,,,,,,,
daycount_132,UI,Value display,x,,"Saturday, May 12th, ",,,,,,,,,,,,,,
daycount_133,UI,Value display,x,,"Sunday, May 13th, ",,,,,,,,,,,,,,
daycount_134,UI,Value display,x,,"Monday, May 14th, ",,,,,,,,,,,,,,
daycount_135,UI,Value display,x,,"Tuesday, May 15th, ",,,,,,,,,,,,,,
daycount_136,UI,Value display,x,,"Wednesday, May 16th, ",,,,,,,,,,,,,,
daycount_137,UI,Value display,x,,"Thursday, May 17th, ",,,,,,,,,,,,,,
daycount_138,UI,Value display,x,,"Friday, May 18th, ",,,,,,,,,,,,,,
daycount_139,UI,Value display,x,,"Saturday, May 19th, ",,,,,,,,,,,,,,
daycount_140,UI,Value display,x,,"Sunday, May 20th, ",,,,,,,,,,,,,,
daycount_141,UI,Value display,x,,"Monday, May 21st, ",,,,,,,,,,,,,,
daycount_142,UI,Value display,x,,"Tuesday, May 22nd, ",,,,,,,,,,,,,,
daycount_143,UI,Value display,x,,"Wednesday, May 23rd, ",,,,,,,,,,,,,,
daycount_144,UI,Value display,x,,"Thursday, May 24th, ",,,,,,,,,,,,,,
daycount_145,UI,Value display,x,,"Friday, May 25th, ",,,,,,,,,,,,,,
daycount_146,UI,Value display,x,,"Saturday, May 26th, ",,,,,,,,,,,,,,
daycount_147,UI,Value display,x,,"Sunday, May 27th, ",,,,,,,,,,,,,,
daycount_148,UI,Value display,x,,"Monday, May 28th, ",,,,,,,,,,,,,,
daycount_149,UI,Value display,x,,"Tuesday, May 29th, ",,,,,,,,,,,,,,
daycount_150,UI,Value display,x,,"Wednesday, May 30th, ",,,,,,,,,,,,,,
daycount_151,UI,Value display,x,,"Thursday, May 31st, ",,,,,,,,,,,,,,
daycount_152,UI,Value display,x,,"Friday, June 1st, ",,,,,,,,,,,,,,
daycount_153,UI,Value display,x,,"Saturday, June 2nd, ",,,,,,,,,,,,,,
daycount_154,UI,Value display,x,,"Sunday, June 3rd, ",,,,,,,,,,,,,,
daycount_155,UI,Value display,x,,"Monday, June 4th, ",,,,,,,,,,,,,,
daycount_156,UI,Value display,x,,"Tuesday, June 5th, ",,,,,,,,,,,,,,
daycount_157,UI,Value display,x,,"Wednesday, June 6th, ",,,,,,,,,,,,,,
daycount_158,UI,Value display,x,,"Thursday, June 7th, ",,,,,,,,,,,,,,
daycount_159,UI,Value display,x,,"Friday, June 8th, ",,,,,,,,,,,,,,
daycount_160,UI,Value display,x,,"Saturday, June 9th, ",,,,,,,,,,,,,,
daycount_161,UI,Value display,x,,"Sunday, June 10th, ",,,,,,,,,,,,,,
daycount_162,UI,Value display,x,,"Monday, June 11th, ",,,,,,,,,,,,,,
daycount_163,UI,Value display,x,,"Tuesday, June 12th, ",,,,,,,,,,,,,,
daycount_164,UI,Value display,x,,"Wednesday, June 13th, ",,,,,,,,,,,,,,
daycount_165,UI,Value display,x,,"Thursday, June 14th, ",,,,,,,,,,,,,,
daycount_166,UI,Value display,x,,"Friday, June 15th, ",,,,,,,,,,,,,,
daycount_167,UI,Value display,x,,"Saturday, June 16th, ",,,,,,,,,,,,,,
daycount_168,UI,Value display,x,,"Sunday, June 17th, ",,,,,,,,,,,,,,
daycount_169,UI,Value display,x,,"Monday, June 18th, ",,,,,,,,,,,,,,
daycount_170,UI,Value display,x,,"Tuesday, June 19th, ",,,,,,,,,,,,,,
daycount_171,UI,Value display,x,,"Wednesday, June 20th, ",,,,,,,,,,,,,,
daycount_172,UI,Value display,x,,"Thursday, June 21st, ",,,,,,,,,,,,,,
daycount_173,UI,Value display,x,,"Friday, June 22nd, ",,,,,,,,,,,,,,
daycount_174,UI,Value display,x,,"Saturday, June 23rd, ",,,,,,,,,,,,,,
daycount_175,UI,Value display,x,,"Sunday, June 24th, ",,,,,,,,,,,,,,
daycount_176,UI,Value display,x,,"Monday, June 25th, ",,,,,,,,,,,,,,
daycount_177,UI,Value display,x,,"Tuesday, June 26th, ",,,,,,,,,,,,,,
daycount_178,UI,Value display,x,,"Wednesday, June 27th, ",,,,,,,,,,,,,,
daycount_179,UI,Value display,x,,"Thursday, June 28th, ",,,,,,,,,,,,,,
daycount_180,UI,Value display,x,,"Friday, June 29th, ",,,,,,,,,,,,,,
daycount_181,UI,Value display,x,,"Saturday, June 30th, ",,,,,,,,,,,,,,
daycount_182,UI,Value display,x,,"Sunday, July 1st, ",,,,,,,,,,,,,,
daycount_183,UI,Value display,x,,"Monday, July 2nd, ",,,,,,,,,,,,,,
daycount_184,UI,Value display,x,,"Tuesday, July 3rd, ",,,,,,,,,,,,,,
daycount_185,UI,Value display,x,,"Wednesday, July 4th, ",,,,,,,,,,,,,,
daycount_186,UI,Value display,x,,"Thursday, July 5th, ",,,,,,,,,,,,,,
daycount_187,UI,Value display,x,,"Friday, July 6th, ",,,,,,,,,,,,,,
daycount_188,UI,Value display,x,,"Saturday, July 7th, ",,,,,,,,,,,,,,
daycount_189,UI,Value display,x,,"Sunday, July 8th, ",,,,,,,,,,,,,,
daycount_190,UI,Value display,x,,"Monday, July 9th, ",,,,,,,,,,,,,,
daycount_191,UI,Value display,x,,"Tuesday, July 10th, ",,,,,,,,,,,,,,
daycount_192,UI,Value display,x,,"Wednesday, July 11th, ",,,,,,,,,,,,,,
daycount_193,UI,Value display,x,,"Thursday, July 12th, ",,,,,,,,,,,,,,
daycount_194,UI,Value display,x,,"Friday, July 13th, ",,,,,,,,,,,,,,
daycount_195,UI,Value display,x,,"Saturday, July 14th, ",,,,,,,,,,,,,,
daycount_196,UI,Value display,x,,"Sunday, July 15th, ",,,,,,,,,,,,,,
daycount_197,UI,Value display,x,,"Monday, July 16th, ",,,,,,,,,,,,,,
daycount_198,UI,Value display,x,,"Tuesday, July 17th, ",,,,,,,,,,,,,,
daycount_199,UI,Value display,x,,"Wednesday, July 18th, ",,,,,,,,,,,,,,
daycount_200,UI,Value display,x,,"Thursday, July 19th, ",,,,,,,,,,,,,,
daycount_201,UI,Value display,x,,"Friday, July 20th, ",,,,,,,,,,,,,,
daycount_202,UI,Value display,x,,"Saturday, July 21st, ",,,,,,,,,,,,,,
daycount_203,UI,Value display,x,,"Sunday, July 22nd, ",,,,,,,,,,,,,,
daycount_204,UI,Value display,x,,"Monday, July 23rd, ",,,,,,,,,,,,,,
daycount_205,UI,Value display,x,,"Tuesday, July 24th, ",,,,,,,,,,,,,,
daycount_206,UI,Value display,x,,"Wednesday, July 25th, ",,,,,,,,,,,,,,
daycount_207,UI,Value display,x,,"Thursday, July 26th, ",,,,,,,,,,,,,,
daycount_208,UI,Value display,x,,"Friday, July 27th, ",,,,,,,,,,,,,,
daycount_209,UI,Value display,x,,"Saturday, July 28th, ",,,,,,,,,,,,,,
daycount_210,UI,Value display,x,,"Sunday, July 29th, ",,,,,,,,,,,,,,
daycount_211,UI,Value display,x,,"Monday, July 30th, ",,,,,,,,,,,,,,
daycount_212,UI,Value display,x,,"Tuesday, July 31st, ",,,,,,,,,,,,,,
daycount_213,UI,Value display,x,,"Wednesday, August 1st, ",,,,,,,,,,,,,,
daycount_214,UI,Value display,x,,"Thursday, August 2nd, ",,,,,,,,,,,,,,
daycount_215,UI,Value display,x,,"Friday, August 3rd, ",,,,,,,,,,,,,,
daycount_216,UI,Value display,x,,"Saturday, August 4th, ",,,,,,,,,,,,,,
daycount_217,UI,Value display,x,,"Sunday, August 5th, ",,,,,,,,,,,,,,
daycount_218,UI,Value display,x,,"Monday, August 6th, ",,,,,,,,,,,,,,
daycount_219,UI,Value display,x,,"Tuesday, August 7th, ",,,,,,,,,,,,,,
daycount_220,UI,Value display,x,,"Wednesday, August 8th, ",,,,,,,,,,,,,,
daycount_221,UI,Value display,x,,"Thursday, August 9th, ",,,,,,,,,,,,,,
daycount_222,UI,Value display,x,,"Friday, August 10th, ",,,,,,,,,,,,,,
daycount_223,UI,Value display,x,,"Saturday, August 11th, ",,,,,,,,,,,,,,
daycount_224,UI,Value display,x,,"Sunday, August 12th, ",,,,,,,,,,,,,,
daycount_225,UI,Value display,x,,"Monday, August 13th, ",,,,,,,,,,,,,,
daycount_226,UI,Value display,x,,"Tuesday, August 14th, ",,,,,,,,,,,,,,
daycount_227,UI,Value display,x,,"Wednesday, August 15th, ",,,,,,,,,,,,,,
daycount_228,UI,Value display,x,,"Thursday, August 16th, ",,,,,,,,,,,,,,
daycount_229,UI,Value display,x,,"Friday, August 17th, ",,,,,,,,,,,,,,
daycount_230,UI,Value display,x,,"Saturday, August 18th, ",,,,,,,,,,,,,,
daycount_231,UI,Value display,x,,"Sunday, August 19th, ",,,,,,,,,,,,,,
daycount_232,UI,Value display,x,,"Monday, August 20th, ",,,,,,,,,,,,,,
daycount_233,UI,Value display,x,,"Tuesday, August 21st, ",,,,,,,,,,,,,,
daycount_234,UI,Value display,x,,"Wednesday, August 22nd, ",,,,,,,,,,,,,,
daycount_235,UI,Value display,x,,"Thursday, August 23rd, ",,,,,,,,,,,,,,
daycount_236,UI,Value display,x,,"Friday, August 24th, ",,,,,,,,,,,,,,
daycount_237,UI,Value display,x,,"Saturday, August 25th, ",,,,,,,,,,,,,,
daycount_238,UI,Value display,x,,"Sunday, August 26th, ",,,,,,,,,,,,,,
daycount_239,UI,Value display,x,,"Monday, August 27th, ",,,,,,,,,,,,,,
daycount_240,UI,Value display,x,,"Tuesday, August 28th, ",,,,,,,,,,,,,,
daycount_241,UI,Value display,x,,"Wednesday, August 29th, ",,,,,,,,,,,,,,
daycount_242,UI,Value display,x,,"Thursday, August 30th, ",,,,,,,,,,,,,,
daycount_243,UI,Value display,x,,"Friday, August 31st, ",,,,,,,,,,,,,,
daycount_244,UI,Value display,x,,"Saturday, September 1st, ",,,,,,,,,,,,,,
daycount_245,UI,Value display,x,,"Sunday, September 2nd, ",,,,,,,,,,,,,,
daycount_246,UI,Value display,x,,"Monday, September 3rd, ",,,,,,,,,,,,,,
daycount_247,UI,Value display,x,,"Tuesday, September 4th, ",,,,,,,,,,,,,,
daycount_248,UI,Value display,x,,"Wednesday, September 5th, ",,,,,,,,,,,,,,
daycount_249,UI,Value display,x,,"Thursday, September 6th, ",,,,,,,,,,,,,,
daycount_250,UI,Value display,x,,"Friday, September 7th, ",,,,,,,,,,,,,,
daycount_251,UI,Value display,x,,"Saturday, September 8th, ",,,,,,,,,,,,,,
daycount_252,UI,Value display,x,,"Sunday, September 9th, ",,,,,,,,,,,,,,
daycount_253,UI,Value display,x,,"Monday, September 10th, ",,,,,,,,,,,,,,
daycount_254,UI,Value display,x,,"Tuesday, September 11th, ",,,,,,,,,,,,,,
daycount_255,UI,Value display,x,,"Wednesday, September 12th, ",,,,,,,,,,,,,,
daycount_256,UI,Value display,x,,"Thursday, September 13th, ",,,,,,,,,,,,,,
daycount_257,UI,Value display,x,,"Friday, September 14th, ",,,,,,,,,,,,,,
daycount_258,UI,Value display,x,,"Saturday, September 15th, ",,,,,,,,,,,,,,
daycount_259,UI,Value display,x,,"Sunday, September 16th, ",,,,,,,,,,,,,,
daycount_260,UI,Value display,x,,"Monday, September 17th, ",,,,,,,,,,,,,,
daycount_261,UI,Value display,x,,"Tuesday, September 18th, ",,,,,,,,,,,,,,
daycount_262,UI,Value display,x,,"Wednesday, September 19th, ",,,,,,,,,,,,,,
daycount_263,UI,Value display,x,,"Thursday, September 20th, ",,,,,,,,,,,,,,
daycount_264,UI,Value display,x,,"Friday, September 21st, ",,,,,,,,,,,,,,
daycount_265,UI,Value display,x,,"Saturday, September 22nd, ",,,,,,,,,,,,,,
daycount_266,UI,Value display,x,,"Sunday, September 23rd, ",,,,,,,,,,,,,,
daycount_267,UI,Value display,x,,"Monday, September 24th, ",,,,,,,,,,,,,,
daycount_268,UI,Value display,x,,"Tuesday, September 25th, ",,,,,,,,,,,,,,
daycount_269,UI,Value display,x,,"Wednesday, September 26th, ",,,,,,,,,,,,,,
daycount_270,UI,Value display,x,,"Thursday, September 27th, ",,,,,,,,,,,,,,
daycount_271,UI,Value display,x,,"Friday, September 28th, ",,,,,,,,,,,,,,
daycount_272,UI,Value display,x,,"Saturday, September 29th, ",,,,,,,,,,,,,,
daycount_273,UI,Value display,x,,"Sunday, September 30th, ",,,,,,,,,,,,,,
daycount_274,UI,Value display,x,,"Monday, October 1st, ",,,,,,,,,,,,,,
daycount_275,UI,Value display,x,,"Tuesday, October 2nd, ",,,,,,,,,,,,,,
daycount_276,UI,Value display,x,,"Wednesday, October 3rd, ",,,,,,,,,,,,,,
daycount_277,UI,Value display,x,,"Thursday, October 4th, ",,,,,,,,,,,,,,
daycount_278,UI,Value display,x,,"Friday, October 5th, ",,,,,,,,,,,,,,
daycount_279,UI,Value display,x,,"Saturday, October 6th, ",,,,,,,,,,,,,,
daycount_280,UI,Value display,x,,"Sunday, October 7th, ",,,,,,,,,,,,,,
daycount_281,UI,Value display,x,,"Monday, October 8th, ",,,,,,,,,,,,,,
daycount_282,UI,Value display,x,,"Tuesday, October 9th, ",,,,,,,,,,,,,,
daycount_283,UI,Value display,x,,"Wednesday, October 10th, ",,,,,,,,,,,,,,
daycount_284,UI,Value display,x,,"Thursday, October 11th, ",,,,,,,,,,,,,,
daycount_285,UI,Value display,x,,"Friday, October 12th, ",,,,,,,,,,,,,,
daycount_286,UI,Value display,x,,"Saturday, October 13th, ",,,,,,,,,,,,,,
daycount_287,UI,Value display,x,,"Sunday, October 14th, ",,,,,,,,,,,,,,
daycount_288,UI,Value display,x,,"Monday, October 15th, ",,,,,,,,,,,,,,
daycount_289,UI,Value display,x,,"Tuesday, October 16th, ",,,,,,,,,,,,,,
daycount_290,UI,Value display,x,,"Wednesday, October 17th, ",,,,,,,,,,,,,,
daycount_291,UI,Value display,x,,"Thursday, October 18th, ",,,,,,,,,,,,,,
daycount_292,UI,Value display,x,,"Friday, October 19th, ",,,,,,,,,,,,,,
daycount_293,UI,Value display,x,,"Saturday, October 20th, ",,,,,,,,,,,,,,
daycount_294,UI,Value display,x,,"Sunday, October 21st, ",,,,,,,,,,,,,,
daycount_295,UI,Value display,x,,"Monday, October 22nd, ",,,,,,,,,,,,,,
daycount_296,UI,Value display,x,,"Tuesday, October 23rd, ",,,,,,,,,,,,,,
daycount_297,UI,Value display,x,,"Wednesday, October 24th, ",,,,,,,,,,,,,,
daycount_298,UI,Value display,x,,"Thursday, October 25th, ",,,,,,,,,,,,,,
daycount_299,UI,Value display,x,,"Friday, October 26th, ",,,,,,,,,,,,,,
daycount_300,UI,Value display,x,,"Saturday, October 27th, ",,,,,,,,,,,,,,
daycount_301,UI,Value display,x,,"Sunday, October 28th, ",,,,,,,,,,,,,,
daycount_302,UI,Value display,x,,"Monday, October 29th, ",,,,,,,,,,,,,,
daycount_303,UI,Value display,x,,"Tuesday, October 30th, ",,,,,,,,,,,,,,
daycount_304,UI,Value display,x,,"Wednesday, October 31st, ",,,,,,,,,,,,,,
daycount_305,UI,Value display,x,,"Thursday, November 1st, ",,,,,,,,,,,,,,
daycount_306,UI,Value display,x,,"Friday, November 2nd, ",,,,,,,,,,,,,,
daycount_307,UI,Value display,x,,"Saturday, November 3rd, ",,,,,,,,,,,,,,
daycount_308,UI,Value display,x,,"Sunday, November 4th, ",,,,,,,,,,,,,,
daycount_309,UI,Value display,x,,"Monday, November 5th, ",,,,,,,,,,,,,,
daycount_310,UI,Value display,x,,"Tuesday, November 6th, ",,,,,,,,,,,,,,
daycount_311,UI,Value display,x,,"Wednesday, November 7th, ",,,,,,,,,,,,,,
daycount_312,UI,Value display,x,,"Thursday, November 8th, ",,,,,,,,,,,,,,
daycount_313,UI,Value display,x,,"Friday, November 9th, ",,,,,,,,,,,,,,
daycount_314,UI,Value display,x,,"Saturday, November 10th, ",,,,,,,,,,,,,,
daycount_315,UI,Value display,x,,"Sunday, November 11th, ",,,,,,,,,,,,,,
daycount_316,UI,Value display,x,,"Monday, November 12th, ",,,,,,,,,,,,,,
daycount_317,UI,Value display,x,,"Tuesday, November 13th, ",,,,,,,,,,,,,,
daycount_318,UI,Value display,x,,"Wednesday, November 14th, ",,,,,,,,,,,,,,
daycount_319,UI,Value display,x,,"Thursday, November 15th, ",,,,,,,,,,,,,,
daycount_320,UI,Value display,x,,"Friday, November 16th, ",,,,,,,,,,,,,,
daycount_321,UI,Value display,x,,"Saturday, November 17th, ",,,,,,,,,,,,,,
daycount_322,UI,Value display,x,,"Sunday, November 18th, ",,,,,,,,,,,,,,
daycount_323,UI,Value display,x,,"Monday, November 19th, ",,,,,,,,,,,,,,
daycount_324,UI,Value display,x,,"Tuesday, November 20th, ",,,,,,,,,,,,,,
daycount_325,UI,Value display,x,,"Wednesday, November 21st, ",,,,,,,,,,,,,,
daycount_326,UI,Value display,x,,"Thursday, November 22nd, ",,,,,,,,,,,,,,
daycount_327,UI,Value display,x,,"Friday, November 23rd, ",,,,,,,,,,,,,,
daycount_328,UI,Value display,x,,"Saturday, November 24th, ",,,,,,,,,,,,,,
daycount_329,UI,Value display,x,,"Sunday, November 25th, ",,,,,,,,,,,,,,
daycount_330,UI,Value display,x,,"Monday, November 26th, ",,,,,,,,,,,,,,
daycount_331,UI,Value display,x,,"Tuesday, November 27th, ",,,,,,,,,,,,,,
daycount_332,UI,Value display,x,,"Wednesday, November 28th, ",,,,,,,,,,,,,,
daycount_333,UI,Value display,x,,"Thursday, November 29th, ",,,,,,,,,,,,,,
daycount_334,UI,Value display,x,,"Friday, November 30th, ",,,,,,,,,,,,,,
daycount_335,UI,Value display,x,,"Saturday, December 1st, ",,,,,,,,,,,,,,
daycount_336,UI,Value display,x,,"Sunday, December 2nd, ",,,,,,,,,,,,,,
daycount_337,UI,Value display,x,,"Monday, December 3rd, ",,,,,,,,,,,,,,
daycount_338,UI,Value display,x,,"Tuesday, December 4th, ",,,,,,,,,,,,,,
daycount_339,UI,Value display,x,,"Wednesday, December 5th, ",,,,,,,,,,,,,,
daycount_340,UI,Value display,x,,"Thursday, December 6th, ",,,,,,,,,,,,,,
daycount_341,UI,Value display,x,,"Friday, December 7th, ",,,,,,,,,,,,,,
daycount_342,UI,Value display,x,,"Saturday, December 8th, ",,,,,,,,,,,,,,
daycount_343,UI,Value display,x,,"Sunday, December 9th, ",,,,,,,,,,,,,,
daycount_344,UI,Value display,x,,"Monday, December 10th, ",,,,,,,,,,,,,,
daycount_345,UI,Value display,x,,"Tuesday, December 11th, ",,,,,,,,,,,,,,
daycount_346,UI,Value display,x,,"Wednesday, December 12th, ",,,,,,,,,,,,,,
daycount_347,UI,Value display,x,,"Thursday, December 13th, ",,,,,,,,,,,,,,
daycount_348,UI,Value display,x,,"Friday, December 14th, ",,,,,,,,,,,,,,
daycount_349,UI,Value display,x,,"Saturday, December 15th, ",,,,,,,,,,,,,,
daycount_350,UI,Value display,x,,"Sunday, December 16th, ",,,,,,,,,,,,,,
daycount_351,UI,Value display,x,,"Monday, December 17th, ",,,,,,,,,,,,,,
daycount_352,UI,Value display,x,,"Tuesday, December 18th, ",,,,,,,,,,,,,,
daycount_353,UI,Value display,x,,"Wednesday, December 19th, ",,,,,,,,,,,,,,
daycount_354,UI,Value display,x,,"Thursday, December 20th, ",,,,,,,,,,,,,,
daycount_355,UI,Value display,x,,"Friday, December 21st, ",,,,,,,,,,,,,,
daycount_356,UI,Value display,x,,"Saturday, December 22nd, ",,,,,,,,,,,,,,
daycount_357,UI,Value display,x,,"Sunday, December 23rd, ",,,,,,,,,,,,,,
daycount_358,UI,Value display,x,,"Monday, December 24th, ",,,,,,,,,,,,,,
daycount_359,UI,Value display,x,,"Tuesday, December 25th, ",,,,,,,,,,,,,,
daycount_360,UI,Value display,x,,"Wednesday, December 26th, ",,,,,,,,,,,,,,
daycount_361,UI,Value display,x,,"Thursday, December 27th, ",,,,,,,,,,,,,,
daycount_362,UI,Value display,x,,"Friday, December 28th, ",,,,,,,,,,,,,,
daycount_363,UI,Value display,x,,"Saturday, December 29th, ",,,,,,,,,,,,,,
daycount_0,UI,Value display,x,,"Sunday, December 30th, ",,,,,,,,,,,,,,
